MainPaper.utf8
…
Yes
B
4,8

Collected data

A total of 40 people have completed the form:

library(tidyverse)
form_results <- read_csv2("https://raw.githubusercontent.com/lwahomura/LingData-CourseWork/master/Form%20Results2.csv")

form_results

## # A tibble: 320 x 6
##    Respondent Respondent_gend Question Context_exists Answer_positive
##         <dbl> <chr>               <dbl>          <dbl>            <dbl>
##  1          1 f                       1              0                0
##  2          1 f                       2              0                1
##  3          1 f                       3              1                1
##  4          1 f                       4              1                1
##  5          1 f                       5              0                0
##  6          1 f                       6              1                0
##  7          1 f                       7              0                1
##  8          1 f                       8              1                1
##  9          2 f                       1              0                1
## 10          2 f                       2              0                0
## #  with 310 more rows, and 1 more variable: Chosen_argument <chr>
…
Data analysis

In order to work with data we should at first transform the collected data so that all the columns well work with will have only numeric values; we also need a column with the empasized argument which is calculated in this way: if the respondent needs to choose argument A and answers positively, argument A has been emphasized; if negatively - argument B (the same for choosing argument B).

form_results_trans <- mutate(form_results, Gender_binary = 1 * (Respondent_gender == 'm'))
form_results_trans <-  mutate(form_results_trans, Argument_binary = 1 * (Chosen_argument == 'B'))
form_results_trans <- mutate(form_results_trans, Emphasized_Argument = (Answer_positiveness == Argument_binary) * 1 ) 
form_results_trans

## # A tibble: 320 x 9
##    Respondent Respondent_gend Question Context_exists Answer_positive
##         <dbl> <chr>               <dbl>          <dbl>            <dbl>
##  1          1 f                       1              0                0
##  2          1 f                       2              0                1
##  3          1 f                       3              1                1
##  4          1 f                       4              1                1
##  5          1 f                       5              0                0
##  6          1 f                       6              1                0
##  7          1 f                       7              0                1
##  8          1 f                       8              1                1
##  9          2 f                       1              0                1
## 10          2 f                       2              0                0
## #  with 310 more rows, and 4 more variables: Chosen_argument <chr>,
## #   Gender_binary <dbl>, Argument_binary <dbl>, Emphasized_Argument <dbl>
…
